54.542000
54.558998
55.832001
61.051998
57.870998
58.519001
55.659000
62.001999
56.894001
58.237999
56.123001
59.188999
55.259998
55.249001
56.282001
59.853001
66.088997
53.924999
55.858002
56.778000
56.955002
55.540001
53.960999
56.959999
54.806999
55.935001
55.870998
55.870998
54.612999
56.445000
