----PJ VALIDATE RUNS ------
rastro LU -700 mb rst
17.172904
17.285944
17.173209
17.393873
17.414471
17.189700
17.333226
17.155388
17.335427
17.203166
17.109519
17.220691
17.427724
17.239868
17.177560
17.124697
17.322228
17.118208
17.246967
17.416708
17.229351
17.603726
17.421699
17.102097
17.462863
17.125619
17.450471
17.258449
17.520173
17.338352
rastro LU -400 mb using ref
19.126757
19.255948
19.425708
19.315888
19.177421
19.548318
19.101728
19.162740
19.242693
19.094200
19.154416
19.163959
19.094358
19.372954
19.420475
19.188736
19.251716
19.174083
19.408453
19.165479
19.210831
19.151189
19.215944
19.300752
18.946251
18.890653
18.889774
18.911982
18.975402
19.059294
Textual LU -700 mb  
38.749261
26.643249
26.629124
26.640703
26.595474
26.804712
26.611592
26.659890
26.611697
26.589471
26.619929
26.669514
26.635977
26.665946
26.742606
26.647102
26.605132
26.654608
26.481527
26.619999
26.624977
26.639464
26.613384
26.641238
26.612123
26.719057
27.102303
26.468100
26.646440
26.479124


rastro CG -2.1 gb rst
92.560970
90.352120
72.693332
62.447234
50.427599
50.099693
49.640593
49.932179
50.081356
49.581239
50.726100
49.988448
49.784987
49.893057
50.113064
49.741343
50.096445
49.881376
49.813591
50.284918
50.103303
49.737575
49.713448
49.741243
50.465047
49.844115
50.281584
50.097501
49.836761
49.943425
rastro LU -1.2 gb using ref
81.651963
63.811586
55.022406
56.755873
55.189224
55.247951
56.518634
55.950147
55.507496
55.077242
55.399002
55.196923
56.062362
56.513720
55.358281
56.320123
55.694211
55.375416
55.032500
55.131460
55.675878
54.939437
54.990613
55.467417
54.775841
54.899039
54.893040
55.097724
54.680179
55.206723

textual CG -2.1 gb 
109.286533
103.757202
87.034131
77.596193
76.227201
76.258987
76.132550
75.589001
75.917011
75.578946
75.746709
75.625042
75.595355
75.622997
75.692364
75.500771
75.686315
75.733069
76.033490
76.302452
75.627651
75.784760
76.412392
75.607895
76.260617
75.763820
75.950486
75.746537
75.688031
75.893363


Finished

